{
    "photos": {
        "page": 4,
        "pages": 52,
        "perpage": 3,
        "total": "154",
        "photo": [{
            "id": "3606437738",
            "owner": "29096781@N02",
            "secret": "7a02f95b14",
            "server": "2480",
            "farm": 3,
            "title": "Water Fountain Closeup",
            "ispublic": 1,
            "isfriend": 0,
            "isfamily": 0
        },
        {
            "id": "3605617857",
            "owner": "29096781@N02",
            "secret": "2f9da1d270",
            "server": "3385",
            "farm": 4,
            "title": "Water Fountain Closeup",
            "ispublic": 1,
            "isfriend": 0,
            "isfamily": 0
        },
        {
            "id": "3605617773",
            "owner": "29096781@N02",
            "secret": "bf1c89212e",
            "server": "2463",
            "farm": 3,
            "title": "Water Fountain Closeup",
            "ispublic": 1,
            "isfriend": 0,
            "isfamily": 0
        }]
    }